0.91,-0.1,0.58,-5.56,-2.74,2.55,3.83,-1.17,-1.8,0.86,2.65,2.95,2.06,1.16,2.55,1.64,-0.1,0.91
4.12,-0.38,3.38,18.44,9.72,-0.23,11.15,43.07,29.53,-6.38,-23.66,-21.99,-11.23,-2.17,-3.26,-3.38,-0.38,4.12
-1.02,-2.94,7.96,53,27.53,-10.61,-3.57,55.53,29.51,-30.76,-40.02,-14.52,4.15,-5.24,-2.71,-1.4,-2.94,-1.02
-3.42,-1.26,-4.11,-2.55,-0.76,0.64,1.01,0.24,-0.13,0.49,2,2.84,1.12,-2.8,-2.64,-1.4,-1.26,-3.42
-1.32,0.44,-0.38,-1.15,-0.13,1.46,2.41,1.8,-0.05,-2.19,-3.66,-3.71,-1.63,1.42,0.36,0.15,0.44,-1.32
-0.61,-2.21,3.53,3.3,-2.42,-7.26,-4.83,5.7,8.78,6.64,5.53,4.46,0.66,-3.99,1.54,1.46,-2.21,-0.61
1.93,-0.11,-0.48,-3.82,-0.95,3.25,3.88,-0.41,-0.46,1.99,2.74,2.07,1.38,1.65,1.9,0.74,-0.11,1.93
1.98,2.73,-0.59,31.26,15.49,-10.24,-8.26,29.76,26.52,1.88,-3.98,3.88,9.1,3.31,2.57,3.04,2.73,1.98
1.65,1.46,-2.32,0.98,0.64,-0.83,-0.92,1.07,0.61,-0.77,-0.49,0.44,0.08,-2.29,-3.22,-1.2,1.46,1.65
-0.16,0.33,-3.82,-3.76,-1.84,0.01,-0.14,-2.63,-2.79,0.16,4.95,7.52,3.11,-5.3,1.95,3.89,0.33,-0.16
-2.52,-0.56,5.38,8.16,5.36,0.44,-3.13,-2.85,0.01,3.44,5.68,5.62,2.34,-2.08,0.59,1.37,-0.56,-2.52
2.8,-0.32,3.87,1.1,8.95,16.18,11.56,-6.84,-13.06,-9.3,-5.27,-3.21,-3.48,-3.95,1.46,1.78,-0.32,2.8
-3.6,3.14,2.76,-11.81,10.4,34.5,25.6,-21.03,-22.77,0.35,6.59,0.3,-2.67,2.87,-4.35,-2.49,3.14,-3.6
-1.19,-0.64,-1.01,6.38,4.27,-0.5,-1.08,4.35,3.03,-1.02,-0.64,2.1,2.79,-0.12,-0.19,-0.12,-0.64,-1.19
-0.15,0.13,-1.12,4.16,1.41,-2.35,-0.11,9.3,9.81,4.46,0.84,-0.27,0.24,0.58,-1.76,-1.54,0.13,-0.15
0.29,0.37,-1.82,-2.3,-1.41,-0.38,-0.44,-1.8,-1.57,-0.03,1.52,1.89,-0.09,-2.74,1.11,2.04,0.37,0.29
-5.82,-6.88,26.82,6.57,0.24,0.28,-0.87,-5.75,-1.84,8.41,17.73,19.66,7.94,-11.09,-3.69,-1.97,-6.88,-5.82
-1.09,-0.65,-1.16,9.72,1.35,-10.19,-8.8,8.25,5.17,-7.65,-10.49,-5.78,-1.51,-2.93,-4.9,-3.29,-0.65,-1.09
3.23,2.08,-4.78,12.18,16.18,12.18,5.13,0.54,3.07,6.11,2.64,-4.06,-8.13,-5.76,-1.15,1.25,2.08,3.23
3.7,2.55,7.01,0.86,-0.19,2.4,7.19,12.43,15.68,16.24,14.02,9.39,2.85,-1.75,4.3,5.3,2.55,3.7
